…
League matches team fight dataset

Winston’s lab is an awesome website that analyses Overwactch pro matches and generates a ton of stats for pretty much everything you can think of related to Overwatch: hero pick-rates, team comps, match score, player performance stats and much much more. They even have a fantasy league! If you haven’t checked them out yet, you really should.

We can use Winston’s Lab “Complete Fight Info” form to retrieve the recorded stats of every team fight from all matches played during the first week of the Overwatch League inaugural season. As there is no obvious way to download datasets from Winston’s lab (I couldn’t find one), I just copied and pasted the query results into a text file and after some formatting, we know have a R-friendly table ready to be imported using the readr package from tidyverse.

#file path
matchdata_filepath <- "~/ivoscience/data/owl-s1w1-match-data/owl-s1w1-teamfight-data.csv"

#Importing the .csv file with the team fight data
match_data <- read_csv(matchdata_filepath) %>%
  rename_all(funs(tolower(gsub(' ','_', .)))) #change whitespaces to underscore and lower case column names

## # A tibble: 715 x 16
##       map roundtype blue_team red_team     time   len    kb    kr    ub
##     <chr>     <chr>     <chr>    <chr>   <time> <int> <int> <int> <int>
##  1 Dorado    Attack       SFS      VAL 07:54:00     4     1     1     2
##  2 Dorado    Attack       SFS      VAL 06:49:00    38     1     6     2
##  3 Dorado    Attack       SFS      VAL 06:05:00    26     7     1     4
##  4 Dorado    Attack       SFS      VAL 04:54:00    19     2     4     0
##  5 Dorado    Attack       SFS      VAL 05:23:00     6     0     1     1
##  6 Dorado    Attack       SFS      VAL 04:05:00    18     6     0     1
##  7 Dorado    Attack       SFS      VAL 03:24:00    17     4     2     3
##  8 Dorado    Attack       SFS      VAL 02:14:00    28     7     2     3
##  9 Dorado    Attack       SFS      VAL 01:51:00     7     0     1     1
## 10 Dorado    Attack       SFS      VAL 01:05:00    24     1     6     2
## # ... with 705 more rows, and 7 more variables: ur <int>, fb <chr>,
## #   death_sequence <chr>, ults_blue <chr>, ults_red <chr>,
## #   teamcomp_blue <chr>, teamcomp_red <chr>
…
